
sub01.html : 상수공사관리

sub02.html : 상수관망관리

sub03.html : 상수보속시설관리

sub04.html : 수용가시설관리

sub05.html : 시설물유지관리

sub06.html : 민원관리

sub07.html : 통계



pop01 ~ pop08 까지 상수공사관리

pop09 ~ pop23 까지 상수관망관리

pop24 ~ pop34 까지 상수부속시설관리

pop35 ~ pop42 까지 수용가시설관리

pop43 ~ pop54 까지 시설물유지관리


pop01, pop07, pop09, pop12, pop14, pop16, pop18, pop20, pop22, pop24, pop27, pop29, pop31, pop33, pop35, pop37, pop39 -> 검색목록

pop02, pop08, pop10, pop13, pop15, pop17, pop19, pop21, pop23, pop25, pop28, pop30, pop32, pop34, pop36, pop38, pop40 -> 대장


pop06 참조자료, pop11 유지보수상세, pop26 부속시설 세부현황 -> 공통되는 부분들

pop41 부속시설 세부현황, pop42 청소이력, pop43 유지보수대장, pop45 작업자등록, pop46 작업추가,pop47/pop48 소모품/예비품 대장,
pop49 시설물 장애관리, pop50 해결방안검색, pop51 해결방안등록
pop52 민원대장, pop53 누수지점, pop54 급수전대장
